%YAML 1.1
%TAG !u! tag:unity3d.com,2011:
--- !u!114 &11400000
MonoBehaviour:
  m_ObjectHideFlags: 0
  m_CorrespondingSourceObject: {fileID: 0}
  m_PrefabInstance: {fileID: 0}
  m_PrefabAsset: {fileID: 0}
  m_GameObject: {fileID: 0}
  m_Enabled: 1
  m_EditorHideFlags: 0
  m_Script: {fileID: 11500000, guid: a94cee6b0c4ea8242972fb3e69a70b23, type: 3}
  m_Name: CliffIsland_Objects
  m_EditorClassIdentifier: 
  paintObjects: []
  positionObjects: []
  proceduralObjects:
  - go: {fileID: 106408, guid: 465f2651a5d5cd340ad9759b4b5bcd9f, type: 3}
    active: 1
    isChild: 0
    placeOnOccupiedCell: 0
    useTileRotation: 0
    offsetRotation: {x: 0, y: 0, z: 0}
    offsetPosition: {x: 0, y: 1, z: 0}
    selectedLayer: 0
    radius: 5
    spawnCount: 5
    useRandomRotation: 1
    randomRotationMin: {x: 0, y: 0, z: 0}
    randomRotationMax: {x: 0, y: 360, z: 0}
    useRandomScaling: 0
    uniformScaling: 0
    randomScalingMax: {x: 1, y: 1, z: 1}
    randomScalingMin: {x: 1, y: 1, z: 1}
    showPanel: 0
    ruleType: 0
    weight: 0.4
    blockType: 0
    tileTypes: 3
    everyNTile: 1
    inset: 0
  - go: {fileID: 106408, guid: 465f2651a5d5cd340ad9759b4b5bcd9f, type: 3}
    active: 0
    isChild: 1
    placeOnOccupiedCell: 0
    useTileRotation: 0
    offsetRotation: {x: 0, y: 0, z: 0}
    offsetPosition: {x: 0, y: 0, z: 0}
    selectedLayer: 0
    radius: 1
    spawnCount: 2
    useRandomRotation: 1
    randomRotationMin: {x: 0, y: 0, z: 0}
    randomRotationMax: {x: 0, y: 360, z: 0}
    useRandomScaling: 1
    uniformScaling: 1
    randomScalingMax: {x: 1.2, y: 1.2, z: 1.2}
    randomScalingMin: {x: 0.5, y: 0.5, z: 0.5}
    showPanel: 1
    ruleType: 0
    weight: 0.52
    blockType: 0
    tileTypes: 4
    everyNTile: 1
    inset: 0
  - go: {fileID: 181868, guid: 94d5bebcf4637ba42a9fc8eb381c83ba, type: 3}
    active: 1
    isChild: 0
    placeOnOccupiedCell: 1
    useTileRotation: 0
    offsetRotation: {x: 0, y: 0, z: 0}
    offsetPosition: {x: 0, y: 1, z: 0}
    selectedLayer: 0
    radius: 5
    spawnCount: 5
    useRandomRotation: 1
    randomRotationMin: {x: 0, y: 0, z: 0}
    randomRotationMax: {x: 0, y: 360, z: 0}
    useRandomScaling: 1
    uniformScaling: 1
    randomScalingMax: {x: 1.5, y: 1.5, z: 1.5}
    randomScalingMin: {x: 0.5, y: 0.5, z: 0.5}
    showPanel: 0
    ruleType: 0
    weight: 0.3
    blockType: 0
    tileTypes: 3
    everyNTile: 1
    inset: 0
